<?xml version="1.0" encoding="utf-8"?>
<!-- Generator: Adobe Illustrator 16.0.0, SVG Export Plug-In . SVG Version: 6.00 Build 0)  -->
<!DOCTYPE svg PUBLIC "-//W3C//DTD SVG 1.1//EN" "http://www.w3.org/Graphics/SVG/1.1/DTD/svg11.dtd">
<svg version="1.1" id="Layer_1" xmlns="http://www.w3.org/2000/svg" xmlns:xlink="http://www.w3.org/1999/xlink" x="0px" y="0px"
	 width="58.388px" height="61.064px" viewBox="0 0 58.388 61.064" enable-background="new 0 0 58.388 61.064" xml:space="preserve">
<g>
	<circle fill="none" stroke="#FFB400" stroke-width="2" stroke-miterlimit="10" cx="8.194" cy="33.271" r="7.194"/>
	<path fill="none" stroke="#FFB400" stroke-width="2" stroke-miterlimit="10" d="M8.193,23.416c1.148,0,2.239,0.243,3.228,0.677
		c0.139-0.385,0.217-0.798,0.217-1.23c0-2.022-1.64-3.662-3.662-3.662s-3.662,1.64-3.662,3.662c0,0.498,0.101,0.973,0.28,1.406
		C5.677,23.725,6.898,23.416,8.193,23.416z"/>
	<circle fill="none" stroke="#FFB400" stroke-width="2" stroke-miterlimit="10" cx="50.194" cy="33.271" r="7.194"/>
	<path fill="none" stroke="#FFB400" stroke-width="2" stroke-miterlimit="10" d="M50.193,23.416c1.148,0,2.239,0.243,3.228,0.677
		c0.139-0.385,0.217-0.798,0.217-1.23c0-2.022-1.64-3.662-3.662-3.662s-3.662,1.64-3.662,3.662c0,0.498,0.101,0.973,0.28,1.406
		C47.677,23.725,48.898,23.416,50.193,23.416z"/>
	<circle fill="none" stroke="#FFB400" stroke-width="2" stroke-miterlimit="10" cx="27.793" cy="15.071" r="7.194"/>
	<path fill="none" stroke="#FFB400" stroke-width="2" stroke-miterlimit="10" d="M27.793,5.216c1.148,0,2.24,0.243,3.229,0.677
		c0.138-0.385,0.216-0.798,0.216-1.23C31.237,2.64,29.598,1,27.576,1c-2.022,0-3.663,1.64-3.663,3.662
		c0,0.499,0.101,0.973,0.28,1.406C25.277,5.524,26.499,5.216,27.793,5.216z"/>
	<circle fill="none" stroke="#FFB400" stroke-width="2" stroke-miterlimit="10" cx="27.793" cy="52.871" r="7.194"/>
	<path fill="none" stroke="#FFB400" stroke-width="2" stroke-miterlimit="10" d="M27.793,43.017c1.148,0,2.24,0.242,3.229,0.676
		c0.138-0.385,0.216-0.797,0.216-1.23c0-2.023-1.64-3.662-3.661-3.662c-2.022,0-3.663,1.639-3.663,3.662
		c0,0.498,0.101,0.973,0.28,1.406C25.277,43.324,26.499,43.017,27.793,43.017z"/>
	<line fill="none" stroke="#FFB400" stroke-width="2" stroke-miterlimit="10" x1="14.483" y1="41.027" x2="20.037" y2="46.582"/>
	<line fill="none" stroke="#FFB400" stroke-width="2" stroke-miterlimit="10" x1="20.175" y1="21.522" x2="15.368" y2="26.33"/>
	<line fill="none" stroke="#FFB400" stroke-width="2" stroke-miterlimit="10" x1="42.763" y1="26.612" x2="36.045" y2="20.699"/>
	<line fill="none" stroke="#FFB400" stroke-width="2" stroke-miterlimit="10" x1="36.167" y1="47.435" x2="43.673" y2="40.828"/>
</g>
</svg>
